<svg xmlns="http://www.w3.org/2000/svg" xmlns:se="http://svg-edit.googlecode.com" xmlns:xlink="http://www.w3.org/1999/xlink" xmlns:dc="http://purl.org/dc/elements/1.1/" xmlns:cc="http://creativecommons.org/ns#" xmlns:rdf="http://www.w3.org/1999/02/22-rdf-syntax-ns#" xmlns:inkscape="http://www.inkscape.org/namespaces/inkscape" width="193.04761809610727" height="47.52380813979232" style="">
                                    <title>my vector image</title>
                                    <!-- Created with Vector Paint - http://www.vectorpaint.yaks.com/ https://chrome.google.com/webstore/detail/hnbpdiengicdefcjecjbnjnoifekhgdo -->
                                    <rect id="backgroundrect" width="100%" height="100%" x="0" y="0" fill="#FFFFFF" stroke="none" class="selected" style="" opacity="0"/>
                                <g style="" class="currentLayer"><title>Layer 1</title><foreignObject fill="" stroke-dashoffset="" fill-rule="nonzero" font-size="40" font-family="Georgia, serif" letter-spacing="0" word-spacing="0" marker-start="" marker-mid="" marker-end="" id="svg_2" x="8.04151725769043" y="6.211633682250977" width="192.04762268066406" height="88.19047546386719" style="color: rgb(255, 255, 255);" class=""><p style="border: none;outline: none;font-size: inherit;line-height: 1em;padding:0;margin:0;" xmlns="http://www.w3.org/1999/xhtml"><p xmlns="http://www.w3.org/1999/xhtml" style="border: none;outline: none;font-size: inherit;line-height: 1em;padding:0;margin:0;">SADWISP</p></p></foreignObject></g></svg>